// Jest Snapshot v1, https://goo.gl/fbAQLP

exports[`renders Event related text in Event component 1`] = `
<DocumentFragment>
  <div>
    <div
      class="ant-row"
    >
      <div
        class="ant-col ant-col-10 ant-col-offset-7"
      >
        <h2
          class="ant-typography"
        />
      </div>
    </div>
    <div
      class="ant-row"
    >
      <div
        class="ant-col ant-col-10 ant-col-offset-7"
      >
        <h4
          class="ant-typography"
        >
          <span
            class="ant-typography ant-typography-secondary"
          />
        </h4>
      </div>
    </div>
    <div
      class="ant-row"
    >
      <div
        class="ant-col ant-col-10 ant-col-offset-7"
      >
        <h4
          class="ant-typography"
        >
          <span
            class="ant-typography"
          >
            Invalid date
          </span>
           
          <span
            style="color: rgb(64, 169, 255);"
          >
            (Invalid date
          </span>
           - 
          <span
            style="color: rgb(64, 169, 255);"
          >
            Invalid date)
          </span>
        </h4>
      </div>
    </div>
    <br />
    <div
      class="ant-row"
    >
      <div
        class="ant-col ant-col-10 ant-col-offset-7"
      >
        <h4
          class="ant-typography"
        >
          Event Type: 
        </h4>
        <span
          class="ant-typography"
        />
      </div>
    </div>
    <br />
    <div
      class="ant-row"
    >
      <div
        class="ant-col ant-col-10 ant-col-offset-7"
      >
        <h4
          class="ant-typography"
        >
          Event Description: 
        </h4>
        <span
          class="ant-typography"
        />
      </div>
    </div>
    <br />
    <div
      class="ant-row"
    >
      <div
        class="ant-col ant-col-10 ant-col-offset-7"
      >
        <h4
          class="ant-typography"
        >
          Speakers: 
        </h4>
      </div>
    </div>
    <br />
    <div
      class="ant-row"
    >
      <div
        class="ant-col ant-col-10 ant-col-offset-7"
      >
        <span
          class="ant-typography ant-typography-warning"
        >
          <kbd />
        </span>
      </div>
    </div>
    <div
      class="ant-divider ant-divider-horizontal"
      role="separator"
    />
  </div>
</DocumentFragment>
`;
